{
  "isPublic": false,
  "viewMode": false,
  "appIsExample": false,
  "unreadCommentThreads": 0,
  "color": "#EAEDFB",
  "icon": "team",
  "slug": "untitled-application-1",
  "evaluationVersion": 2,
  "createdAt": {
    "seconds": 1647840813,
    "nanos": 360000000
  },
  "deleted": false
}